FIRMWARE_VER:4.4.2
FIRMWARE_VER:5.0.2
MACHINE_MODEL:rk312x
MACHINE_ID:007
MANUFACTURER:RK30SDK
MAGIC: 0x5041524B
ATAG: 0x60000800
MACHINE: 312x
CHECK_MASK: 0x80
KERNEL_IMG: 0x60408000
#RECOVER_KEY: 1,1,0,20,0
CMDLINE:console=ttyFIQ0 androidboot.baseband=N/A androidboot.selinux=permissive androidboot.hardware=rk30board androidboot.console=ttyFIQ0 init=/init initrd=0x62000000,0x00800000 mtdparts=rk29xxnand:0x00002000@0x00002000(uboot),0x00002000@0x00004000(misc),0x00008000@0x00006000(resource),0x00006000@0x0000E000(kernel),0x00006000@0x00014000(boot),0x00010000@0x0001A000(recovery),0x00020000@0x0002A000(backup),0x00040000@0x0004A000(cache),0x001FE000@0x0008A000(userdata),0x00008000@0x00288000(metadata),0x00002000@0x00290000(kpanic),0x00200000@0x00292000(system),0x00620000@0x00492000(linuxroot),-@0x00AB2000(user)
